Id,IsDeleted,Name,CreatedDate,CreatedById,LastModifiedDate,LastModifiedById,SystemModstamp,clcommon__CL_Product__c,clcommon__Insurance_Definition__c,Fee_Definition__c,External_ID__c,clcommon__cl_product__r.genesis__External_ID__c ,clcommon__insurance_definition__r.External_ID__c ,fee_definition__r.clcommon__External_ID__c 
aCR6D0000008PZbWAM,false,PIA-00000012,2020-09-23T03:41:49.000+0000,0056D000002Q7dLQAS,2021-01-26T10:20:20.000+0000,0052v00000ZIjZMAA1,2021-01-26T10:20:20.000+0000,a0Z6D000000XMzUUAW,aCN6D0000008OLnWAM,a1e6D000000VFr0QAG,pia-00000012 - campers/trailer - warranty insurance - warranty insurance,campers/trailer,warranty insurance - joan's credit insurance,warranty insurance,
aCR6D0000008PZCWA2,false,PIA-00000007,2020-09-23T02:52:13.000+0000,0056D000002Q7dLQAS,2021-01-26T10:20:20.000+0000,0052v00000ZIjZMAA1,2021-01-26T10:20:20.000+0000,a0Z6D000000XMzTUAW,aCN6D0000008OLdWAM,a1e6D000000VFqlQAG,pia-00000007 - boat - consumer credit insurance - consumer credit insurance,boat,consumer credit insurance - eric five star,consumer credit insurance,
aCR6D0000008PZHWA2,false,PIA-00000008,2020-09-23T02:52:56.000+0000,0056D000002Q7dLQAS,2021-01-26T10:20:20.000+0000,0052v00000ZIjZMAA1,2021-01-26T10:20:20.000+0000,a0Z6D000000XMzTUAW,aCN6D0000008OLiWAM,a1e6D000000VFqqQAG,pia-00000008 - boat - mortgaged property insurance - mortgaged property insurance,boat,mortgaged property insurance - mortgage trust,mortgaged property insurance,
aCR6D0000008PZMWA2,false,PIA-00000009,2020-09-23T02:53:26.000+0000,0056D000002Q7dLQAS,2021-01-26T10:20:20.000+0000,0052v00000ZIjZMAA1,2021-01-26T10:20:20.000+0000,a0Z6D000000XMzTUAW,aCN6D0000008OLnWAM,a1e6D000000VFr0QAG,pia-00000009 - boat - warranty insurance - warranty insurance,boat,warranty insurance - joan's credit insurance,warranty insurance,
aCR6D0000008PZ7WAM,false,PIA-00000006,2020-09-03T04:37:26.000+0000,0056D000002Q7dLQAS,2021-01-26T10:20:20.000+0000,0052v00000ZIjZMAA1,2021-01-26T10:20:20.000+0000,a0Z6D000001J2MYUA0,aCN6D0000008OLnWAM,a1e6D000000VFr0QAG,pia-00000006 - caravan - warranty insurance - warranty insurance,caravan,warranty insurance - joan's credit insurance,warranty insurance,
aCR6D0000008PYxWAM,false,PIA-00000004,2020-09-03T04:36:17.000+0000,0056D000002Q7dLQAS,2021-01-26T10:20:20.000+0000,0052v00000ZIjZMAA1,2021-01-26T10:20:20.000+0000,a0Z6D000001J2MYUA0,aCN6D0000008OLdWAM,a1e6D000000VFqlQAG,pia-00000004 - caravan - consumer credit insurance - consumer credit insurance,caravan,consumer credit insurance - eric five star,consumer credit insurance,
aCR6D0000008PZ2WAM,false,PIA-00000005,2020-09-03T04:36:59.000+0000,0056D000002Q7dLQAS,2021-01-26T10:20:20.000+0000,0052v00000ZIjZMAA1,2021-01-26T10:20:20.000+0000,a0Z6D000001J2MYUA0,aCN6D0000008OLiWAM,a1e6D000000VFqqQAG,pia-00000005 - caravan - mortgaged property insurance - mortgaged property insurance,caravan,mortgaged property insurance - mortgage trust,mortgaged property insurance,
aCR6D0000008PZgWAM,false,PIA-00000013,2020-09-23T04:34:09.000+0000,0056D000002Q7dLQAS,2021-01-26T10:20:20.000+0000,0052v00000ZIjZMAA1,2021-01-26T10:20:20.000+0000,a0Z6D000000XMzcUAG,aCN6D0000008OLdWAM,a1e6D000000VFqlQAG,pia-00000013 - motorcycle - consumer credit insurance - consumer credit insurance,motorcycle,consumer credit insurance - eric five star,consumer credit insurance,
aCR6D0000008PZWWA2,false,PIA-00000011,2020-09-23T03:41:11.000+0000,0056D000002Q7dLQAS,2021-01-26T10:20:20.000+0000,0052v00000ZIjZMAA1,2021-01-26T10:20:20.000+0000,a0Z6D000000XMzUUAW,aCN6D0000008OLiWAM,a1e6D000000VFqqQAG,pia-00000011 - campers/trailer - mortgaged property insurance - mortgaged property insurance,campers/trailer,mortgaged property insurance - mortgage trust,mortgaged property insurance,
aCR6D0000008PZlWAM,false,PIA-00000014,2020-09-23T04:34:59.000+0000,0056D000002Q7dLQAS,2021-01-26T10:20:20.000+0000,0052v00000ZIjZMAA1,2021-01-26T10:20:20.000+0000,a0Z6D000000XMzcUAG,aCN6D0000008OLiWAM,a1e6D000000VFqqQAG,pia-00000014 - motorcycle - mortgaged property insurance - mortgaged property insurance,motorcycle,mortgaged property insurance - mortgage trust,mortgaged property insurance,
aCR6D0000008PZqWAM,false,PIA-00000015,2020-09-23T04:36:42.000+0000,0056D000002Q7dLQAS,2021-01-26T10:20:20.000+0000,0052v00000ZIjZMAA1,2021-01-26T10:20:20.000+0000,a0Z6D000000XMzcUAG,aCN6D0000008OLnWAM,a1e6D000000VFr0QAG,pia-00000015 - motorcycle - warranty insurance - warranty insurance,motorcycle,warranty insurance - joan's credit insurance,warranty insurance,
aCR6D0000008PZvWAM,false,PIA-00000016,2020-10-08T02:50:14.000+0000,0056D000002B5P2QAK,2021-01-26T10:20:20.000+0000,0052v00000ZIjZMAA1,2021-01-26T10:20:20.000+0000,a0Z6D000000XMzeUAG,aCN6D0000008OLdWAM,a1e6D000000VFqlQAG,pia-00000016 - personal water craft - consumer credit insurance - consumer credit insurance,personal water craft,consumer credit insurance - eric five star,consumer credit insurance,
aCR6D0000008PaFWAU,false,PIA-00000020,2020-10-08T03:36:17.000+0000,0056D000002B5P2QAK,2021-01-26T10:20:20.000+0000,0052v00000ZIjZMAA1,2021-01-26T10:20:20.000+0000,a0Z6D000000eMggUAE,aCN6D0000008OLdWAM,a1e6D000000VFqlQAG,pia-00000020 - personal loan (unsecured) - consumer credit insurance - consumer credit insurance,personal loan (unsecured),consumer credit insurance - eric five star,consumer credit insurance,
aCR6D0000008PaAWAU,false,PIA-00000019,2020-10-08T03:20:21.000+0000,0056D000002B5P2QAK,2021-01-26T10:20:20.000+0000,0052v00000ZIjZMAA1,2021-01-26T10:20:20.000+0000,a0Z6D000000XMzdUAG,aCN6D0000008OLdWAM,a1e6D000000VFqlQAG,pia-00000019 - personal loan (secured) - consumer credit insurance - consumer credit insurance,personal loan (secured),consumer credit insurance - eric five star,consumer credit insurance,
aCR6D0000008Pa5WAE,false,PIA-00000018,2020-10-08T02:52:28.000+0000,0056D000002B5P2QAK,2021-01-26T10:20:20.000+0000,0052v00000ZIjZMAA1,2021-01-26T10:20:20.000+0000,a0Z6D000000XMzeUAG,aCN6D0000008OLnWAM,a1e6D000000VFr0QAG,pia-00000018 - personal water craft - warranty insurance - warranty insurance,personal water craft,warranty insurance - joan's credit insurance,warranty insurance,
aCR6D0000008Pa0WAE,false,PIA-00000017,2020-10-08T02:51:40.000+0000,0056D000002B5P2QAK,2021-01-26T10:20:20.000+0000,0052v00000ZIjZMAA1,2021-01-26T10:20:20.000+0000,a0Z6D000000XMzeUAG,aCN6D0000008OLiWAM,a1e6D000000VFqqQAG,pia-00000017 - personal water craft - mortgaged property insurance - mortgaged property insurance,personal water craft,mortgaged property insurance - mortgage trust,mortgaged property insurance,
aCR6D0000008PaPWAU,false,PIA-00000022,2021-01-12T07:23:08.000+0000,0056D000001Ac6nQAC,2021-01-26T10:20:20.000+0000,0052v00000ZIjZMAA1,2021-01-26T10:20:20.000+0000,a0Z6D000000XMzcUAG,aCN6D0000008OLsWAM,a1e6D000000VFqlQAG,pia-00000022 - motorcycle - consumer credit insurance - consumer credit insurance,motorcycle,consumer credit insurance - all insurance,consumer credit insurance,
aCR6D0000008PZRWA2,false,PIA-00000010,2020-09-23T03:26:02.000+0000,0056D000002Q7dLQAS,2021-01-26T10:20:20.000+0000,0052v00000ZIjZMAA1,2021-01-26T10:20:20.000+0000,a0Z6D000000XMzUUAW,aCN6D0000008OLdWAM,a1e6D000000VFqlQAG,pia-00000010 - campers/trailer - consumer credit insurance - consumer credit insurance,campers/trailer,consumer credit insurance - eric five star,consumer credit insurance,
aCR6D0000008PaUWAU,false,PIA-00000023,2021-01-20T04:11:20.000+0000,0056D000001Ac6nQAC,2021-01-26T10:20:20.000+0000,0052v00000ZIjZMAA1,2021-01-26T10:20:20.000+0000,a0Z6D000000XMzVUAW,aCN6D0000008OM7WAM,a1e6D000000VFqqQAG,pia-00000023 - car - mortgaged property insurance - mortgaged property insurance,car,mortgaged property insurance - all insurance,mortgaged property insurance,
aCR6D0000008PajWAE,false,PIA-00000026,2021-01-20T04:14:25.000+0000,0056D000001Ac6nQAC,2021-01-26T10:20:20.000+0000,0052v00000ZIjZMAA1,2021-01-26T10:20:20.000+0000,a0Z6D000000XMzcUAG,aCN6D0000008OLxWAM,a1e6D000000VFr0QAG,pia-00000026 - motorcycle - warranty insurance - warranty insurance,motorcycle,warranty insurance - eddies warranty insurance,warranty insurance,
aCR6D0000008PaeWAE,false,PIA-00000025,2021-01-20T04:14:15.000+0000,0056D000001Ac6nQAC,2021-01-26T10:20:20.000+0000,0052v00000ZIjZMAA1,2021-01-26T10:20:20.000+0000,a0Z6D000000XMzVUAW,aCN6D0000008OLxWAM,a1e6D000000VFr0QAG,pia-00000025 - car - warranty insurance - warranty insurance,car,warranty insurance - eddies warranty insurance,warranty insurance,
aCR6D0000008PaoWAE,false,PIA-00000027,2021-01-20T04:14:40.000+0000,0056D000001Ac6nQAC,2021-01-26T10:20:20.000+0000,0052v00000ZIjZMAA1,2021-01-26T10:20:20.000+0000,a0Z6D000000XMzVUAW,aCN6D0000008OM2WAM,a1e6D000000VFr0QAG,pia-00000027 - car - warranty insurance - warranty insurance,car,warranty insurance - all insurance,warranty insurance,
aCR6D0000008PYnWAM,false,PIA-00000002,2020-08-10T00:06:20.000+0000,0052v00000ZIjZMAA1,2021-01-26T10:20:20.000+0000,0052v00000ZIjZMAA1,2021-01-26T10:20:20.000+0000,a0Z6D000000XMzVUAW,aCN6D0000008OLiWAM,a1e6D000000VFqqQAG,pia-00000002 - car - mortgaged property insurance - mortgaged property insurance,car,mortgaged property insurance - mortgage trust,mortgaged property insurance,
aCR6D0000008PYsWAM,false,PIA-00000003,2020-08-10T00:06:32.000+0000,0052v00000ZIjZMAA1,2021-01-26T10:20:20.000+0000,0052v00000ZIjZMAA1,2021-01-26T10:20:20.000+0000,a0Z6D000000XMzVUAW,aCN6D0000008OLnWAM,a1e6D000000VFr0QAG,pia-00000003 - car - warranty insurance - warranty insurance,car,warranty insurance - joan's credit insurance,warranty insurance,
aCR6D0000008PYiWAM,false,PIA-00000001,2020-08-10T00:06:07.000+0000,0052v00000ZIjZMAA1,2021-01-26T10:20:20.000+0000,0052v00000ZIjZMAA1,2021-01-26T10:20:20.000+0000,a0Z6D000000XMzVUAW,aCN6D0000008OLdWAM,a1e6D000000VFqlQAG,pia-00000001 - car - consumer credit insurance - consumer credit insurance,car,consumer credit insurance - eric five star,consumer credit insurance,
aCR6D0000008PaKWAU,false,PIA-00000021,2021-01-12T07:22:41.000+0000,0056D000001Ac6nQAC,2021-01-26T10:20:20.000+0000,0052v00000ZIjZMAA1,2021-01-26T10:20:20.000+0000,a0Z6D000000XMzVUAW,aCN6D0000008OLsWAM,a1e6D000000VFqlQAG,pia-00000021 - car - consumer credit insurance - consumer credit insurance,car,consumer credit insurance - all insurance,consumer credit insurance,
aCR6D0000008PaZWAU,false,PIA-00000024,2021-01-20T04:11:40.000+0000,0056D000001Ac6nQAC,2021-01-26T10:20:20.000+0000,0052v00000ZIjZMAA1,2021-01-26T10:20:20.000+0000,a0Z6D000000XMzcUAG,aCN6D0000008OM7WAM,a1e6D000000VFqqQAG,pia-00000024 - motorcycle - mortgaged property insurance - mortgaged property insurance,motorcycle,mortgaged property insurance - all insurance,mortgaged property insurance,
aCR6D0000008PatWAE,false,PIA-00000028,2021-01-20T04:14:49.000+0000,0056D000001Ac6nQAC,2021-01-26T10:20:20.000+0000,0052v00000ZIjZMAA1,2021-01-26T10:20:20.000+0000,a0Z6D000000XMzcUAG,aCN6D0000008OM2WAM,a1e6D000000VFr0QAG,pia-00000028 - motorcycle - warranty insurance - warranty insurance,motorcycle,warranty insurance - all insurance,warranty insurance,
