Id,IsDeleted,Name,CreatedDate,CreatedById,LastModifiedDate,LastModifiedById,SystemModstamp,Execution_Flow__c,Action__c,Current_Department__c,Current_Status__c,External_Id__c,Next_Department__c,Next_Status__c,Sequence__c,Transiction__c,Transition_Type__c,execution_flow__r.External_Id__c ,action__r.External_Id__c ,current_department__r.genesis__External_ID__c ,next_department__r.genesis__External_ID__c 
aEo6D0000004CA6SAM,false,Step 5,2020-06-11T23:25:49.000+0000,0052v00000ZIjZMAA1,2021-01-26T10:20:15.000+0000,0052v00000ZIjZMAA1,2021-01-26T10:20:15.000+0000,aEp6D000000006nSAA,aEq6D0000004CAySAM,,NEW - HEM EVALUATED,step 5 - consumer loan - secured - run scorecards,,NEW - SCORECARD GENERATED,5,Approve,Synchronous,consumer loan - secured,run scorecards, , ,
aEo6D0000004CA7SAM,false,Step 6,2020-06-11T23:25:49.000+0000,0052v00000ZIjZMAA1,2021-01-26T10:20:15.000+0000,0052v00000ZIjZMAA1,2021-01-26T10:20:15.000+0000,aEp6D000000006nSAA,aEq6D0000004CAuSAM,,NEW - SCORECARD GENERATED,step 6 - consumer loan - secured - call pricing,,NEW - PRICING GENERATED,6,Approve,Synchronous,consumer loan - secured,call pricing, , ,
aEo6D0000004CA8SAM,false,Step 4,2020-06-11T23:25:49.000+0000,0052v00000ZIjZMAA1,2021-01-26T10:20:15.000+0000,0052v00000ZIjZMAA1,2021-01-26T10:20:15.000+0000,aEp6D000000006nSAA,aEq6D0000004CAvSAM,,NEW - AML PULLED,step 4 - consumer loan - secured - run hems,,NEW - HEM EVALUATED,4,Approve,Synchronous,consumer loan - secured,run hems, , ,
aEo6D0000004CA9SAM,false,END,2020-06-11T23:25:49.000+0000,0052v00000ZIjZMAA1,2021-01-26T10:20:15.000+0000,0052v00000ZIjZMAA1,2021-01-26T10:20:15.000+0000,aEp6D000000006nSAA,aEq6D0000004CAwSAM,,NEW - REHASH EXECUTED,end - consumer loan - secured - run system decision,,NEW - REHASH EXECUTED,8,Approve,Synchronous,consumer loan - secured,run system decision, , ,
aEo6D0000004CAASA2,false,Step 1,2020-06-11T23:25:49.000+0000,0052v00000ZIjZMAA1,2021-01-26T10:20:15.000+0000,0052v00000ZIjZMAA1,2021-01-26T10:20:15.000+0000,aEp6D000000006nSAA,aEq6D0000004CAzSAM,,NEW - CREDIT SUBMISSION IN PROCESS,step 1 - consumer loan - secured - call equifax apply,,NEW - CREDIT PULLED,1,Approve,Synchronous,consumer loan - secured,call equifax apply, , ,
aEo6D0000004CABSA2,false,Step 3,2020-06-11T23:25:49.000+0000,0052v00000ZIjZMAA1,2021-01-26T10:20:15.000+0000,0052v00000ZIjZMAA1,2021-01-26T10:20:15.000+0000,aEp6D000000006nSAA,aEq6D0000004CAxSAM,,NEW - CREDIT REPORT PULL,step 3 - consumer loan - secured - call id matrix,,NEW - AML PULLED,3,Approve,Synchronous,consumer loan - secured,call id matrix, , ,
aEo6D0000004CM8SAM,false,Step 2,2020-08-26T05:19:57.000+0000,0052v00000dLkKkAAK,2021-01-26T10:20:15.000+0000,0052v00000ZIjZMAA1,2021-01-26T10:20:15.000+0000,aEp6D000000006nSAA,aEq6D0000004CMxSAM,,NEW - CREDIT PULLED,step 2 - consumer loan - secured - call equifax credit report,,NEW - CREDIT REPORT PULL,2,Approve,Synchronous,consumer loan - secured,call equifax credit report, , ,
aEo6D0000004CMISA2,false,Step 7,2020-10-28T00:41:05.000+0000,0052v00000ZIjZMAA1,2021-01-26T10:20:15.000+0000,0052v00000ZIjZMAA1,2021-01-26T10:20:15.000+0000,aEp6D000000006nSAA,aEq6D0000004CN2SAM,,NEW - PRICING GENERATED,step 7 - consumer loan - secured - run rehash function,,NEW - REHASH EXECUTED,7,Approve,Synchronous,consumer loan - secured,run rehash function, , ,
