Id,OwnerId,IsDeleted,Name,CreatedDate,CreatedById,LastModifiedDate,LastModifiedById,SystemModstamp,genesis__Enabled__c,genesis__Evaluation_Expression__c,genesis__Object_Type__c,genesis__Total_Weight__c,genesis__Use_Input_as_Score__c,External_Id__c
a786D0000000NqnQAE,0056D000001Ac6nQAC,false,CD Applicant,2019-11-25T04:58:58.000+0000,0056D000001Ac6nQAC,2021-01-26T10:20:18.000+0000,0052v00000ZIjZMAA1,2021-01-26T10:20:18.000+0000,true,,genesis__applications__c,1.00,false,cd applicant,
a786D0000000Pv1QAE,0056D000002Q7dLQAS,false,CD Member Staus,2020-08-26T04:31:02.000+0000,0056D000002Q7dLQAS,2021-01-26T10:20:18.000+0000,0052v00000ZIjZMAA1,2021-01-26T10:20:18.000+0000,true,,genesis__applications__c,1.00,false,cd member staus,
a786D0000000PuSQAU,0056D000002Q7dLQAS,false,CD Intercept,2020-08-26T03:06:01.000+0000,0056D000002Q7dLQAS,2021-01-26T10:20:18.000+0000,0052v00000ZIjZMAA1,2021-01-26T10:20:18.000+0000,true,,genesis__applications__c,1.00,false,cd intercept,
a786D0000000PuhQAE,0056D000002Q7dLQAS,false,CD Equifax Apply,2020-08-26T04:11:24.000+0000,0056D000002Q7dLQAS,2021-01-26T10:20:18.000+0000,0052v00000ZIjZMAA1,2021-01-26T10:20:18.000+0000,true,,genesis__applications__c,1.00,true,cd equifax apply,
a786D00000000v2QAA,0052v00000ZIjZMAA1,false,CD Equifax Scoreseeker/Apply score,2019-09-30T17:50:38.000+0000,0052v00000ZIjZMAA1,2021-01-26T10:20:18.000+0000,0052v00000ZIjZMAA1,2021-01-26T10:20:18.000+0000,true,,genesis__applications__c,0.00,true,cd equifax scoreseeker/apply score,
a786D0000000OiIQAU,0056D000001Ac6nQAC,false,CD Apply NX8002,2020-01-31T06:15:03.000+0000,0056D000001Ac6nQAC,2021-01-26T10:20:18.000+0000,0052v00000ZIjZMAA1,2021-01-26T10:20:18.000+0000,true,,genesis__applications__c,1.00,false,cd apply nx8002,
a786D0000000OscQAE,0056D000001E4QSQA0,false,Open Account Limits,2020-02-11T09:12:33.000+0000,0056D000001E4QSQA0,2021-01-26T10:20:18.000+0000,0052v00000ZIjZMAA1,2021-01-26T10:20:18.000+0000,true,,genesis__applications__c,1.00,false,open account limits,
a786D0000000NqdQAE,0056D000001Ac6nQAC,false,CD Net Deposit,2019-11-25T03:54:57.000+0000,0056D000001Ac6nQAC,2021-01-26T10:20:18.000+0000,0052v00000ZIjZMAA1,2021-01-26T10:20:18.000+0000,true,,genesis__applications__c,1.00,false,cd net deposit,
a786D0000000MSFQA2,0056D000001Ac6nQAC,false,CD Age,2019-11-19T05:42:45.000+0000,0056D000001Ac6nQAC,2021-01-26T10:20:18.000+0000,0052v00000ZIjZMAA1,2021-01-26T10:20:18.000+0000,true,,genesis__applications__c,1.00,false,cd age,
a786D0000000MSAQA2,0056D000001Ac6nQAC,false,CD Residential Status,2019-11-19T05:26:37.000+0000,0056D000001Ac6nQAC,2021-01-26T10:20:18.000+0000,0052v00000ZIjZMAA1,2021-01-26T10:20:18.000+0000,true,,genesis__applications__c,1.00,false,cd residential status,
a786D0000000MSKQA2,0056D000001Ac6nQAC,false,CD membership colour,2019-11-19T06:14:12.000+0000,0056D000001Ac6nQAC,2021-01-26T10:20:18.000+0000,0052v00000ZIjZMAA1,2021-01-26T10:20:18.000+0000,true,,genesis__applications__c,1.00,false,cd membership colour,
a786D0000000NpzQAE,0056D000001Ac6nQAC,false,CD Base,2019-11-21T04:05:01.000+0000,0056D000001Ac6nQAC,2021-01-26T10:20:18.000+0000,0052v00000ZIjZMAA1,2021-01-26T10:20:18.000+0000,true,,genesis__applications__c,1.00,false,cd base,
a786D0000000PuwQAE,0056D000002Q7dLQAS,false,CD Accomodation Status,2020-08-26T04:24:07.000+0000,0056D000002Q7dLQAS,2021-01-26T10:20:18.000+0000,0052v00000ZIjZMAA1,2021-01-26T10:20:18.000+0000,true,,genesis__applications__c,1.00,false,cd accomodation status,
a786D0000000PurQAE,0056D000002Q7dLQAS,false,CD No of Co-Borrower,2020-08-26T04:22:28.000+0000,0056D000002Q7dLQAS,2021-01-26T10:20:18.000+0000,0052v00000ZIjZMAA1,2021-01-26T10:20:18.000+0000,true,,genesis__applications__c,1.00,false,cd no of co-borrower,
a786D0000000PvBQAU,0056D000002Q7dLQAS,false,CD Equifax Enq in 6m,2020-08-26T04:37:44.000+0000,0056D000002Q7dLQAS,2021-01-26T10:20:18.000+0000,0052v00000ZIjZMAA1,2021-01-26T10:20:18.000+0000,true,,genesis__applications__c,1.00,false,cd equifax enq in 6m,
a786D0000000PumQAE,0056D000002Q7dLQAS,false,CD Loan Purpose,2020-08-26T04:13:31.000+0000,0056D000002Q7dLQAS,2021-01-26T10:20:18.000+0000,0052v00000ZIjZMAA1,2021-01-26T10:20:18.000+0000,true,,genesis__applications__c,1.00,false,cd loan purpose,
a786D0000000118QAA,0056D000001Ac6nQAC,false,General,2019-10-07T22:23:56.000+0000,0056D000001Ac6nQAC,2021-01-26T10:20:18.000+0000,0052v00000ZIjZMAA1,2021-01-26T10:20:18.000+0000,true,,genesis__applications__c,0.00,false,general,
